-------------------------------------------------------------------------------
Test set: com.cloudfire.arraylist.TestSuite
-------------------------------------------------------------------------------
Tests run: 4, Failures: 0, Errors: 0, Skipped: 0, Time elapsed: 0.166 s - in com.cloudfire.arraylist.TestSuite
