2023-01-26 08:42:13 INFO  Util:87 - Browser Launched Successfully
2023-01-26 08:42:13 INFO  Util:91 - Date Picker Clicked
2023-01-26 08:42:13 INFO  Util:96 - Currnet Month and Year: January 2023
2023-01-26 08:42:15 INFO  Util:127 - Expected Future date is picked successfully : 25 October 2023
